{
  "docs": [
    {
      "title": {
        "ru": "Яйцо куриное (желток сухой)",
        "ua": "Яйце куряче (жовток сухий)"
      },
      "groupBloodNotAllowed": [
        null,
        true,
        false,
        false,
        false
      ],
      "categories": [
        "яйца"
      ],
      "weight": 100,
      "_id": "5d51694802b2373622ff553b",
      "calories": 623,
      "__v": 0
    },
    {
      "title": {
        "ru": "Горох маш Ярмарка Платинум",
        "ua": "Горох маш Ярмарка Платинум"
      },
      "groupBloodNotAllowed": [
        null,
        true,
        false,
        false,
        false
      ],
      "categories": [
        "зерновые"
      ],
      "weight": 100,
      "_id": "5d51694802b2373622ff554d",
      "calories": 312,
      "__v": 0
    },
    {
      "title": {
        "ru": "Гречневая крупа (ядрица) зелёная",
        "ua": "Гречана крупа (ядриця) зелена"
      },
      "groupBloodNotAllowed": [
        null,
        true,
        false,
        true,
        true
      ],
      "categories": [
        "зерновые"
      ],
      "weight": 100,
      "_id": "5d51694802b2373622ff555c",
      "calories": 296,
      "__v": 0
    },
    {
      "title": {
        "ru": "Яйцо куриное (вареное всмятку)",
        "ua": "Яйце куряче (варене всмятку)"
      },
      "groupBloodNotAllowed": [
        null,
        true,
        false,
        false,
        false
      ],
      "categories": [
        "яйца"
      ],
      "weight": 100,
      "_id": "5d51694802b2373622ff553a",
      "calories": 159,
      "__v": 0
    },
    {
      "title": {
        "ru": "Омлет с сыром",
        "ua": "Омлет із сиром"
      },
      "groupBloodNotAllowed": [
        null,
        true,
        false,
        false,
        false
      ],
      "categories": [
        "яйца"
      ],
      "weight": 100,
      "_id": "5d51694802b2373622ff5530",
      "calories": 342,
      "__v": 0
    },
    {
      "title": {
        "ru": "Яйцо куриное (вареное вкрутую)",
        "ua": "Яйце куряче (варене круто)"
      },
      "groupBloodNotAllowed": [
        null,
        true,
        false,
        false,
        false
      ],
      "categories": [
        "яйца"
      ],
      "weight": 100,
      "_id": "5d51694802b2373622ff5539",
      "calories": 160,
      "__v": 0
    },
    {
      "title": {
        "ru": "Меланж яичный",
        "ua": "Меланж яєчний"
      },
      "groupBloodNotAllowed": [
        null,
        true,
        false,
        false,
        false
      ],
      "categories": [
        "яйца"
      ],
      "weight": 100,
      "_id": "5d51694802b2373622ff552c",
      "calories": 157,
      "__v": 0
    },
    {
      "title": {
        "ru": "Булгур",
        "ua": "Булгур"
      },
      "groupBloodNotAllowed": [
        null,
        true,
        false,
        false,
        false
      ],
      "categories": [
        "зерновые"
      ],
      "weight": 100,
      "_id": "5d51694802b2373622ff5547",
      "calories": 342,
      "__v": 0
    },
    {
      "title": {
        "ru": "Гречневые хлопья Myllyn Paras для каши",
        "ua": "Гречані пластівці Myllyn Paras для каші"
      },
      "groupBloodNotAllowed": [
        null,
        true,
        false,
        true,
        true
      ],
      "categories": [
        "зерновые"
      ],
      "weight": 100,
      "_id": "5d51694802b2373622ff5565",
      "calories": 340,
      "__v": 0
    },
    {
      "title": {
        "ru": "Гречневые хлопья Пассим",
        "ua": "Гречані пластівці Пассим"
      },
      "groupBloodNotAllowed": [
        null,
        true,
        false,
        true,
        true
      ],
      "categories": [
        "зерновые"
      ],
      "weight": 100,
      "_id": "5d51694802b2373622ff5569",
      "calories": 322,
      "__v": 0
    }
  ],
  "totalDocs": 2648,
  "limit": 10,
  "totalPages": 265,
  "page": 1,
  "pagingCounter": 1,
  "hasPrevPage": false,
  "hasNextPage": true,
  "prevPage": null,
  "nextPage": 2
}